vhdl proc_common_v3_00_a "C:\Xilinx\14.7\ISE_DS\EDK/hw/XilinxProcessorIPLib/pcores/proc_common_v3_00_a/hdl/vhdl/proc_common_pkg.vhd"
vhdl proc_common_v3_00_a "C:\Xilinx\14.7\ISE_DS\EDK/hw/XilinxProcessorIPLib/pcores/proc_common_v3_00_a/hdl/vhdl/ipif_pkg.vhd"
vhdl proc_common_v3_00_a "C:\Xilinx\14.7\ISE_DS\EDK/hw/XilinxProcessorIPLib/pcores/proc_common_v3_00_a/hdl/vhdl/or_muxcy.vhd"
vhdl proc_common_v3_00_a "C:\Xilinx\14.7\ISE_DS\EDK/hw/XilinxProcessorIPLib/pcores/proc_common_v3_00_a/hdl/vhdl/or_gate128.vhd"
vhdl proc_common_v3_00_a "C:\Xilinx\14.7\ISE_DS\EDK/hw/XilinxProcessorIPLib/pcores/proc_common_v3_00_a/hdl/vhdl/family_support.vhd"
vhdl proc_common_v3_00_a "C:\Xilinx\14.7\ISE_DS\EDK/hw/XilinxProcessorIPLib/pcores/proc_common_v3_00_a/hdl/vhdl/pselect_f.vhd"
vhdl proc_common_v3_00_a "C:\Xilinx\14.7\ISE_DS\EDK/hw/XilinxProcessorIPLib/pcores/proc_common_v3_00_a/hdl/vhdl/counter_f.vhd"
vhdl proc_common_v3_00_a "C:\Xilinx\14.7\ISE_DS\EDK/hw/XilinxProcessorIPLib/pcores/proc_common_v3_00_a/hdl/vhdl/srl_fifo_rbu_f.vhd"
vhdl proc_common_v3_00_a "C:\Xilinx\14.7\ISE_DS\EDK/hw/XilinxProcessorIPLib/pcores/proc_common_v3_00_a/hdl/vhdl/cntr_incr_decr_addn_f.vhd"
vhdl proc_common_v3_00_a "C:\Xilinx\14.7\ISE_DS\EDK/hw/XilinxProcessorIPLib/pcores/proc_common_v3_00_a/hdl/vhdl/dynshreg_f.vhd"
vhdl proc_common_v3_00_a "C:\Xilinx\14.7\ISE_DS\EDK/hw/XilinxProcessorIPLib/pcores/proc_common_v3_00_a/hdl/vhdl/muxf_struct_f.vhd"
vhdl axi_slave_burst_v1_00_a "C:\Xilinx\14.7\ISE_DS\EDK/hw/XilinxProcessorIPLib/pcores/axi_slave_burst_v1_00_a/hdl/vhdl/address_decode.vhd"
vhdl axi_slave_burst_v1_00_a "C:\Xilinx\14.7\ISE_DS\EDK/hw/XilinxProcessorIPLib/pcores/axi_slave_burst_v1_00_a/hdl/vhdl/addr_gen.vhd"
vhdl axi_slave_burst_v1_00_a "C:\Xilinx\14.7\ISE_DS\EDK/hw/XilinxProcessorIPLib/pcores/axi_slave_burst_v1_00_a/hdl/vhdl/control_state_machine.vhd"
vhdl axi_slave_burst_v1_00_a "C:\Xilinx\14.7\ISE_DS\EDK/hw/XilinxProcessorIPLib/pcores/axi_slave_burst_v1_00_a/hdl/vhdl/read_data_path.vhd"
vhdl axi_slave_burst_v1_00_a "C:\Xilinx\14.7\ISE_DS\EDK/hw/XilinxProcessorIPLib/pcores/axi_slave_burst_v1_00_a/hdl/vhdl/axi_slave_burst.vhd"
verilog flash_v1_00_a "../hdl/verilog/user_logic.v"
vhdl flash_v1_00_a "../hdl/vhdl/flash.vhd"
